<?xml version="1.0" ?><svg id="Layer_1" style="enable-background:new 0 0 128 128;" version="1.1" viewBox="0 0 128 128" xml:space="preserve" xmlns="http://www.w3.org/2000/svg" xmlns:xlink="http://www.w3.org/1999/xlink"><style type="text/css">
	.st0{fill:#E8833F;}
	.st1{fill:#606463;}
	.st2{fill:#757777;}
	.st3{fill:#828282;}
	.st4{fill:#919191;}
	.st5{fill:#F4CECE;}
	.st6{fill:#FAD8D7;}
	.st7{fill:#FFE3E0;}
	.st8{fill:#E92B37;}
	.st9{fill:none;stroke:#31352E;stroke-width:6;stroke-linecap:round;stroke-linejoin:round;stroke-miterlimit:10;}
	.st10{fill:#EBD5AC;}
	.st11{fill:#E8C89A;}
	.st12{fill:#E4BA88;}
	.st13{fill:#F9BDBD;}
	.st14{fill:#EE5953;}
	.st15{fill:#DCDCDE;}
	.st16{fill:#BABABA;}
	.st17{fill:#C1C2C6;}
	.st18{fill:#EDEDEE;}
	.st19{fill:#CACACB;}
	.st20{fill:#FFFFFF;}
	.st21{fill:#F2F2F2;}
	.st22{fill:#FE930E;}
	.st23{fill:#FF6501;}
	.st24{fill:#EEEDEE;}
	.st25{fill:#F5F5F5;}
	.st26{fill:#DDDDDD;}
	.st27{fill:none;stroke:#31352E;stroke-width:6;stroke-miterlimit:10;}
	.st28{fill:#EAEAEA;}
	.st29{fill:#F8F8F8;}
	.st30{fill:#D3D3D3;}
	.st31{fill:#A85848;}
	.st32{fill:#C47169;}
	.st33{fill:#21BDD6;}
	.st34{fill:#1FACC7;}
	.st35{fill:#FFFCFB;}
	.st36{fill:#ED2626;}
	.st37{fill:#EA6565;}
	.st38{fill:#71BA38;}
	.st39{fill:#91CC52;}
	.st40{fill:#D1D2D4;}
	.st41{fill:#E8E8EA;}
	.st42{fill:#E4F2F4;}
	.st43{fill:#D91C00;}
	.st44{fill:#C41F0E;}
	.st45{fill:#DDC692;}
	.st46{fill:#CCB483;}
	.st47{fill:#F1F1F1;}
	.st48{fill:#D1C89F;}
	.st49{fill:#E5D8A5;}
	.st50{fill:#FCBF27;}
	.st51{fill:none;stroke:#FDE46C;stroke-width:6;stroke-linecap:round;stroke-miterlimit:10;}
	.st52{fill:#D7EDF2;}
	.st53{fill:#97918F;}
	.st54{fill:#874239;}
	.st55{fill:#934B45;}
	.st56{fill:#6BC935;}
	.st57{fill:#8CDD58;}
	.st58{fill:#BA6735;}
	.st59{fill:#A95829;}
	.st60{fill:#F2E0B8;}
	.st61{fill:#A81647;}
	.st62{fill:#8344AA;}
	.st63{fill:#E8D2A3;}
	.st64{fill:#68478E;}
	.st65{fill:#F8E2B3;}
	.st66{fill:#F7EAD0;}
	.st67{fill:#F9E6B9;}
	.st68{fill:#EFCC9A;}
	.st69{fill:none;stroke:#CD9356;stroke-width:6;stroke-linecap:round;stroke-linejoin:round;stroke-miterlimit:10;}
	.st70{fill:#E6E6E6;}
	.st71{fill:#F4F4F4;}
	.st72{fill:#FFFCD9;}
	.st73{fill:#FAD841;}
	.st74{fill:#FFEEA6;}
	.st75{fill:#474747;}
	.st76{fill:#B7B7B7;}
	.st77{fill:#FFC560;}
	.st78{fill:#FEFEC0;}
	.st79{fill:#ECB65C;}
	.st80{fill:#E3A24E;}
	.st81{fill:#EDEDED;}
	.st82{fill:#D38E44;}
	.st83{fill:#FFF5CC;}
	.st84{fill:#F7B369;}
	.st85{fill:#F8BD83;}
	.st86{fill:#EFAA70;}
	.st87{fill:none;stroke:#31352E;stroke-width:6;stroke-linecap:round;stroke-miterlimit:10;}
	.st88{fill:#E45544;}
	.st89{fill:#80C431;}
	.st90{fill:#99CE46;}
	.st91{fill:#72B42E;}
	.st92{fill:#C64C46;}
	.st93{fill:#EA726C;}
	.st94{fill:none;stroke:#31352E;stroke-width:6;stroke-linejoin:round;stroke-miterlimit:10;}
	.st95{fill:#D2CBB0;}
	.st96{fill:#C46E35;}
	.st97{fill:#D07C43;}
	.st98{fill:none;stroke:#F4CA19;stroke-width:6;stroke-linecap:round;stroke-miterlimit:10;}
	.st99{fill:#FFF1F0;}
	.st100{fill:#FD8779;}
	.st101{fill:#F8CC9F;}
	.st102{fill:#ECB24B;}
	.st103{fill:#FBCB46;}
	.st104{fill:#EFF2F3;}
	.st105{fill:#DADEDF;}
	.st106{fill:#D45947;}
	.st107{fill:#F1786B;}
	.st108{fill:#336C80;}
	.st109{fill:#E77125;}
	.st110{fill:#C96635;}
	.st111{fill:#77B8E9;}
	.st112{fill:#E2C72B;}
	.st113{fill:#EFD410;}
	.st114{fill:#E4E4E4;}
	.st115{fill:#F86F3B;}
	.st116{fill:#FB8B47;}
	.st117{fill:#F87A40;}
	.st118{fill:#FEA852;}
	.st119{fill:none;stroke:#FFFFFF;stroke-width:6;stroke-linecap:round;stroke-linejoin:round;stroke-miterlimit:10;}
	.st120{fill:#FFAC3E;}
	.st121{fill:#DBDBDB;}
	.st122{fill:#7E4927;}
	.st123{fill:#64371F;}
	.st124{fill:#9C6741;}
	.st125{fill:#EE1F25;}
	.st126{fill:#ED5F77;}
	.st127{fill:#CB1D21;}
	.st128{fill:#842424;}
	.st129{fill:#FFE04A;}
	.st130{fill:#F2D040;}
	.st131{fill:#FFEA94;}
	.st132{fill:#E5E5E5;}
	.st133{fill:#A5A5A5;}
	.st134{fill:#FFB600;}
	.st135{fill:#FFC213;}
	.st136{fill:#FFCD26;}
	.st137{fill:#FFD939;}
	.st138{fill:#EEA218;}
	.st139{fill:#D78619;}
	.st140{fill:#FFC736;}
	.st141{fill:#FAF5E5;}
	.st142{fill:#D8CCB8;}
	.st143{fill:#F1D3A1;}
	.st144{fill:#F7EAD5;}
	.st145{fill:#4CAF50;}
	.st146{fill:#529E52;}
	.st147{fill:none;stroke:#9172C1;stroke-width:6;stroke-linecap:round;stroke-miterlimit:10;}
	.st148{fill:#513B72;}
	.st149{fill:#841439;}
	.st150{fill:#81AD02;}
	.st151{fill:#7AAC2F;}
	.st152{fill:#679E29;}
	.st153{fill:#4CBF0A;}
	.st154{fill:#48AF05;}
	.st155{fill:#339A01;}
	.st156{fill:#107400;}
	.st157{fill:#7DD841;}
	.st158{fill:#CA793B;}
	.st159{fill:#47B216;}
	.st160{fill:#63C127;}
	.st161{fill:#F7F7FA;}
	.st162{fill:#D2D2D2;}
	.st163{fill:none;stroke:#FFFFFF;stroke-width:6;stroke-linecap:round;stroke-miterlimit:10;}
	.st164{fill:#996528;}
	.st165{fill:#F5D542;}
	.st166{fill:#F4CD42;}
	.st167{fill:#F3C642;}
	.st168{fill:#F1BE43;}
	.st169{fill:#F0B743;}
	.st170{fill:#EFAF43;}
	.st171{fill:#FBF1C6;}
	.st172{fill:#BCBDC2;}
	.st173{fill:#A02A2A;}
	.st174{fill:#B64A4A;}
	.st175{fill:#FBE868;}
	.st176{fill:#F2D630;}
	.st177{fill:#FAE100;}
	.st178{fill:#FFFBD8;}
	.st179{fill:#EFE8BD;}
	.st180{fill:#FFFDF3;}
	.st181{fill:#EFE7C5;}
	.st182{fill:#EB4675;}
	.st183{fill:#C1D83C;}
	.st184{fill:#FF5F94;}
	.st185{fill:#E0AF74;}
	.st186{fill:#F9C68F;}
	.st187{fill:#EB5637;}
	.st188{fill:#CA1700;}
	.st189{fill:#6E9E43;}
	.st190{fill:#E6D6B3;}
	.st191{fill:#9B1E0A;}
	.st192{fill:#7C1D13;}
	.st193{fill:#FF9F2C;}
	.st194{fill:#FF8812;}
	.st195{fill:#DEDEDE;}
	.st196{fill:#D1D1D1;}
	.st197{fill:#D3D0C9;}
	.st198{fill:#ADA392;}
	.st199{fill:#4C4442;}
	.st200{fill:#D8C094;}
	.st201{fill:#A65AA8;}
	.st202{fill:#954C9B;}
	.st203{fill:#B980BC;}
	.st204{fill:#EAD8C9;}
	.st205{fill:#D3BDAA;}
	.st206{fill:#FFF3E6;}
	.st207{fill:#E2DEE1;}
	.st208{fill:#E8E097;}
	.st209{fill:#FFFF01;}
	.st210{fill:#F4E028;}
	.st211{fill:#722131;}
	.st212{fill:#F9DD9D;}
	.st213{fill:#46D2E0;}
	.st214{fill:#DA2E2C;}
	.st215{fill:#E24444;}
	.st216{fill:#D7DFE2;}
	.st217{fill:none;stroke:#F9BDBD;stroke-width:4;stroke-linecap:round;stroke-linejoin:round;stroke-miterlimit:10;}
	.st218{fill:#ED4C5C;}
	.st219{fill:#CA5231;}
	.st220{fill:#B54A31;}
	.st221{fill:#E92F34;}
	.st222{fill:#EFEED2;}
	.st223{fill:#D81D2A;}
	.st224{fill:#EA6877;}
	.st225{fill:#A8CE3B;}
	.st226{fill:#A1BF34;}
	.st227{fill:#F25F98;stroke:#31352E;stroke-width:6;stroke-linecap:round;stroke-miterlimit:10;}
	.st228{fill:#C1DC77;}
	.st229{fill:#7844AA;stroke:#7844AA;stroke-miterlimit:10;}
	.st230{fill:#D6B05C;}
	.st231{fill:#CCA556;}
	.st232{fill:none;}
	.st233{fill:#FFECF0;}
	.st234{fill:#EA4B54;}
	.st235{fill:none;stroke:#FFBC6E;stroke-width:6;stroke-miterlimit:10;}
	.st236{fill:#E24733;}
	.st237{fill:#ED7970;}
	.st238{fill:#BF311B;}
	.st239{fill:#D23620;}
	.st240{fill:#ECECEC;}
	.st241{fill:#EDA118;}
	.st242{fill:#D68519;}
	.st243{fill:#FFC636;}
	.st244{fill:#FDCC53;}
</style><path class="st61" d="M70.3,75.3C63,86.1,62,95.9,65.2,103.7c-6.3,11.4-14.6,20.1-14.6,20.1s-38.3-8.2-44.8-29  c-5.6-18.1,6.6-30.5,24.6-36.1c17.9-5.6,34.9-2.3,40.6,15.4C70.8,74.6,70.5,75,70.3,75.3z" id="XMLID_510_"/><path class="st62" d="M92.2,55.4C92.2,55.4,92.2,55.4,92.2,55.4c-3.7,2-7.3,4.5-10.7,7.4C77.6,66.1,74,70,71.1,74.2  c-4.3-13.3-15-18.5-27.6-17.8c12.7-10,16.2-26.1,16.2-26.1c2.6,0.2,6.1-0.1,9.8-2c1.3,6.4,6.6,10.3,6.6,10.3s8.2-3,10.5-9  c3.7,3.5,8.5,3.4,9.4,3.5C96.1,33.1,95.3,45.9,92.2,55.4z" id="XMLID_473_"/><path class="st64" d="M96.1,33.1c0,0-1.1,13.1-3.9,22.3c-3.6,2-7.2,4.5-10.6,7.4c4.8-9.5,10.3-30.3,10.3-30.3  C93,32.8,95.1,33,96.1,33.1z" id="XMLID_93_"/><path class="st145" d="M100.5,32.5c-0.8-13.9-11.1-22-23.6-21.6c-10.2,0.3-18.4,4.9-21.7,18.5c0,0,6.7,2.8,14.4-1  c1.3,6.4,6.6,10.3,6.6,10.3s8.2-3,10.5-9C93,35,100.5,32.5,100.5,32.5z" id="XMLID_10_"/><path class="st146" d="M76.4,10.9c6.7,1.4,15.9,9.4,16.2,21.8c4.3,1,7.8-0.2,7.8-0.2C99,9.8,76.6,10.9,76.4,10.9z" id="XMLID_579_"/><path class="st9" d="M92.3,54.7c2.2-7.3,3.5-14.7,3.8-21.6" id="XMLID_52_"/><path class="st147" d="M63.4,40.4c-1.8,5.2-4.9,10.5-10.8,16.3" id="XMLID_26_"/><path class="st148" d="M75.4,68.8c-1.6,1.7-3,3.5-4.3,5.4c-4.3-13.3-15-18.5-27.6-17.8c2.3-1.8,4.3-3.8,6-5.9  C61.5,51.7,70.7,58.1,75.4,68.8z" id="XMLID_542_"/><path class="st9" d="M95.1,33.1c3.1,0.2,5.4-0.5,5.4-0.5c-0.8-13.9-11.1-22-23.6-21.6c-10.2,0.2-18.4,4.8-21.7,18.4  c0,0,1.8,0.7,4.5,0.9c2.6,0.2,6.2-0.1,9.8-2c1.3,6.4,6.6,10.3,6.6,10.3s8.2-3,10.5-9C89.4,32,92.6,32.9,95.1,33.1z" id="XMLID_585_"/><path class="st9" d="M83.1,11.2c4.4-6.4,12.5-8.4,18-4.5" id="XMLID_524_"/><path class="st149" d="M64.8,103.8c-4,7.1-9.1,13.7-13.8,18.7c-1.6-0.9-3.9-1.8-6.9-3c-8-3.2-19.5-7.8-24.2-15.9  c4,0.9,9.2,0.6,15.1-0.9c4-1,8-2.5,11.7-4.3c3.7-1.8,7.1-3.9,9.9-6.2c4.9-4,8-7.5,10-10.6C62.6,89.9,62.3,97.4,64.8,103.8z" id="XMLID_430_"/><path class="st87" d="M64.8,104.4c-6.2,11-14.2,19.4-14.2,19.4s-38.3-8.2-44.8-29C1.7,81.6,7.2,71.4,17.6,64.7" id="XMLID_407_"/><path class="st87" d="M41.8,56.5c0.5-0.1,1.1-0.1,1.6-0.1c12.8-0.6,23.5,4.6,27.8,18.2" id="XMLID_511_"/><path class="st150" d="M30.9,47.5l-1.6-5.6L19,45.7l2.2,5.2l-8.5,5.4l11.8,19.2c0,0,3.8,0.4,9.1-1.6  c7.2-2.7,10.5-5.5,10.5-5.5l-3.5-22.5L30.9,47.5z" id="XMLID_60_"/><polyline class="st9" id="XMLID_32_" points="31.3,47.4 40.6,45.9 44.1,68.1 "/><polyline class="st9" id="XMLID_286_" points="29.3,41.9 29.3,41.9 29.3,41.9 29.3,41.9 "/><polyline class="st9" id="XMLID_38_" points="21.2,50.9 12.7,56.3 24.5,75.6 "/><polyline class="st9" id="XMLID_33_" points="27,63.8 19,45.9 18.9,45.8 29.3,41.9 29.3,41.9 29.3,41.9 38.1,72.2 "/><path class="st87" d="M48.3,63.7C38.1,78.3,17.3,75.4,17.3,75.4" id="XMLID_262_"/><path class="st151" d="M113.9,104.8c-11.6,17.2-26.9,18.7-38.9,10.5s-16.4-22.8-4.8-40.1s34.9-30.5,46.9-22.3  S125.6,87.6,113.9,104.8z" id="XMLID_913_"/><path class="st152" d="M113.9,104.8c11.6-17.2,15.2-43.7,3.2-51.9c-12-8.1-35.3,5.2-46.9,22.4  c-4.7,7-6.8,13.6-6.8,19.5c0-5.1,1.9-10.9,6-17c10.3-15.2,30.7-26.9,41.3-19.7c10.6,7.2,7.4,30.5-2.8,45.8  c-10.3,15.2-23.7,16.5-34.3,9.3c-5.3-3.6-8.8-8.5-9.9-14.5c1.1,6.9,5.2,12.6,11.3,16.8C87.1,123.5,102.3,122.1,113.9,104.8z" id="XMLID_972_"/><path class="st87" d="M113.9,104.8c-11.6,17.2-26.9,18.7-38.9,10.5c-4.5-3.1-7.9-7-9.9-11.7  C62,95.9,63,86.1,70.3,75.3c11.6-17.2,34.9-30.5,46.9-22.3S125.6,87.6,113.9,104.8z" id="XMLID_937_"/><polyline class="st87" id="XMLID_603_" points="97.5,70.9 99.5,79.4 109,77.9 "/><polyline class="st87" id="XMLID_602_" points="87.8,77.9 91.5,91.2 105.8,90 "/><polyline class="st87" id="XMLID_534_" points="76,86.5 81.6,105.9 101.6,103.8 "/><line class="st87" id="XMLID_914_" x1="68.7" x2="104.7" y1="124.8" y2="71.4"/><path class="st9" d="M59.7,31c-1.4,5.4-4.6,12.4-9.1,18.2" id="XMLID_20_"/></svg>