<svg width="60" height="60" xmlns="http://www.w3.org/2000/svg">
 <title/>

 <g>
  <title>background</title>
  <rect fill="none" id="canvas_background" height="402" width="582" y="-1" x="-1"/>
 </g>
 <g>
  <title>Layer 1</title>
  <path id="svg_1" fill="#d4edff" opacity="0.5" d="m44.89006,13.41a13.05652,13.05652 0 0 1 4.48,4.72c0.01,0.02 0.02,0.03 0.02,0.05l-0.1,0.05c-1.6,0 -6.39,-3.23 -11.18,-3.23s-9.58,3.23 -14.37,3.23c-4.78,0 -7.98,-3.23 -10.57,-3.23l-0.05,-0.05a12.43733,12.43733 0 0 1 1.99,-1.54a4.001,4.001 0 0 0 1.89,-3.41l0,-3l26,0l0,3a4.001,4.001 0 0 0 1.89,3.41z"/>
  <path opacity="0.2" id="svg_3" fill="#2c4b75" fill-rule="evenodd" d="m44.89008,13.41a4.02094,4.02094 0 0 1 -1.89,-3.41l0,-3l-5.09523,0l0,3a4.42575,4.42575 0 0 0 1.44,3.41c2.89587,2.37561 4.65521,6.54169 4.65521,11.024l0,21.566c0,7.17969 -4.43451,13 -9.90479,13l3.90479,0a13,13 0 0 0 13,-13l0,-21.566a13.00009,13.00009 0 0 0 -6.10998,-11.024z"/>
  <rect opacity="0.2" id="svg_4" fill="#2c4b75" y="7" x="17.00006" width="26" height="3"/>
  <path opacity="0.5" id="svg_5" fill="#d4edff" d="m51.00006,24.48l0,21.57a12.99962,12.99962 0 0 1 -13,13l-16,0a12.99962,12.99962 0 0 1 -13,-13l0,-21.57a12.94373,12.94373 0 0 1 4.12,-9.48l0.05,0.05c2.59,0 5.79,3.23 10.57,3.23c4.79,0 9.58,-3.23 14.37,-3.23s9.58,3.23 11.18,3.23l0.1,-0.05a12.9486,12.9486 0 0 1 1.61,6.25z"/>
  <path id="svg_6" fill="#666666" fill-rule="evenodd" d="m44.00006,7l-28,0a2.99994,2.99994 0 0 1 -3,-3l0,0a2.99994,2.99994 0 0 1 3,-3l28,0a2.99994,2.99994 0 0 1 3,3l0,0a2.99994,2.99994 0 0 1 -3,3z"/>
  <path id="svg_7" fill="#fff" fill-rule="evenodd" opacity="0.75" d="m28.00006,7l-6,0a2.99994,2.99994 0 0 1 -3,-3l0,0a2.99994,2.99994 0 0 1 3,-3l6,0a2.99994,2.99994 0 0 1 3,3l0,0a2.99994,2.99994 0 0 1 -3,3z"/>
  <path id="svg_8" fill="#231515" fill-rule="evenodd" opacity="0.2" d="m44.00006,1l-7,0a3,3 0 0 1 0,6l7,0a3,3 0 0 0 0,-6z"/>
  <path id="svg_9" fill="#fff" fill-rule="evenodd" opacity="0.75" d="m26.21765,46l0,-21.566c0,-8.434 3.7348,-9.434 3.7348,-14.434l0,-3l-7.2857,0l0,3a4.25787,4.25787 0 0 1 -1.575,3.41a13.76552,13.76552 0 0 0 -5.09167,11.024l0,21.566c0,7.17969 4.85022,13 10.83331,13l6.21429,0c-4.44459,0 -6.83003,-5.82031 -6.83003,-13z"/>
  <path opacity="0.2" id="svg_12" fill="#2d2929" d="m38.00006,56l-16,0a12.99963,12.99963 0 0 1 -13,-13l0,3a12.99963,12.99963 0 0 0 13,13l16,0a12.99963,12.99963 0 0 0 13,-13l0,-3a12.99963,12.99963 0 0 1 -13,13z"/>
  <path id="svg_13" fill="#2d2d2d" d="m38,60l-16,0a14.01573,14.01573 0 0 1 -14,-14l0,-21.56641a13.917,13.917 0 0 1 6.58008,-11.87109a3.00677,3.00677 0 0 0 1.41992,-2.5625l0,-3a0.99974,0.99974 0 0 1 1,-1l26,0a0.99974,0.99974 0 0 1 1,1l0,3a3.00612,3.00612 0 0 0 1.42041,2.5625a13.91769,13.91769 0 0 1 6.57959,11.87109l0,21.56641a14.01573,14.01573 0 0 1 -14,14zm-20,-52l0,2a4.99352,4.99352 0 0 1 -2.35986,4.25781a11.93029,11.93029 0 0 0 -5.64014,10.17578l0,21.56641a12.01344,12.01344 0 0 0 12,12l16,0a12.01344,12.01344 0 0 0 12,-12l0,-21.56641a11.93094,11.93094 0 0 0 -5.63965,-10.17578a4.99287,4.99287 0 0 1 -2.36035,-4.25781l0,-2l-24,0z"/>
  <path id="svg_15" fill="#2d2d2d" d="m44,8l-28,0a4,4 0 0 1 0,-8l28,0a4,4 0 0 1 0,8zm-28,-6a2,2 0 0 0 0,4l28,0a2,2 0 0 0 0,-4l-28,0z"/>
 </g>
</svg>